<svg id="Header" xmlns="http://www.w3.org/2000/svg" width="24" height="24" viewBox="0 0 24 24">
  <path class="cls-1" d="M13.5,3.5A3.5,3.5,0,1,1,10,7,3.5,3.5,0,0,1,13.5,3.5Zm-6,9A3.5,3.5,0,1,1,4,16,3.5,3.5,0,0,1,7.5,12.5ZM1,6H15.5V8H1V6ZM19,6h3.5V8H19V6ZM1,15H7.5v2H1V15Zm12,0h9.5v2H13V15Z"/>
</svg>
